…
fireflies_data <- read_csv("https://whitlockschluter.zoology.ubc.ca/wp-content/data/chapter02/chap02q19FireflySpermatophoreMass.csv")
```

    ## 
    ## ── Column specification ────────────────────────────────────────────────────────
    ## cols(
    ##   spermatophoreMass = col_double()
    ## )

``` r
fireflies_data # print the data in the console
```

    ## # A tibble: 35 x 1
    ##    spermatophoreMass
    ##                <dbl>
    ##  1             0.047
    ##  2             0.037
    ##  3             0.041
    ##  4             0.045
    ##  5             0.039
    ##  6             0.064
    ##  7             0.064
    ##  8             0.065
    ##  9             0.079
    ## 10             0.07 
    ## # … with 25 more rows

``` r
distinct(fireflies_data,spermatophoreMass) #view specific data
```

    ## # A tibble: 26 x 1
    ##    spermatophoreMass
    ##                <dbl>
    ##  1             0.047
    ##  2             0.037
    ##  3             0.041
    ##  4             0.045
    ##  5             0.039
    ##  6             0.064
    ##  7             0.065
    ##  8             0.079
    ##  9             0.07 
    ## 10             0.066
    ## # … with 16 more rows

``` r
count(fireflies_data,spermatophoreMass) #displays values of specified variable in the console
```

    ## # A tibble: 26 x 2
    ##    spermatophoreMass     n
    ##                <dbl> <int>
    ##  1             0.037     1
    ##  2             0.039     1
    ##  3             0.041     1
    ##  4             0.045     1
    ##  5             0.046     1
    ##  6             0.047     1
    ##  7             0.048     2
    ##  8             0.055     1
    ##  9             0.056     1
    ## 10             0.059     1
    ## # … with 16 more rows
…
library(tidyverse)

# ebird Taxonomy ----------------------------------------------------------

library(auk)                          # load the auk package
birds <- ebird_taxonomy %>%           # start with the ebird_taxonomy data
  as_tibble() %>%                     # tibbles print better in the console
  filter(category == "species")       # remove non-species taxa

distinct(birds, order) #displays the variety of orders possible in the console
```

    ## # A tibble: 41 x 1
    ##    order              
    ##    <chr>              
    ##  1 Struthioniformes   
    ##  2 Rheiformes         
    ##  3 Tinamiformes       
    ##  4 Casuariiformes     
    ##  5 Apterygiformes     
    ##  6 Anseriformes       
    ##  7 Galliformes        
    ##  8 Phoenicopteriformes
    ##  9 Podicipediformes   
    ## 10 Columbiformes      
    ## # … with 31 more rows

``` r
count(birds, order)   #displays the different orders with the amount in each order 
```

    ## # A tibble: 41 x 2
    ##    order                n
    ##    <chr>            <int>
    ##  1 Accipitriformes    252
    ##  2 Anseriformes       178
    ##  3 Apterygiformes       5
    ##  4 Bucerotiformes      72
    ##  5 Caprimulgiformes   597
    ##  6 Cariamiformes        2
    ##  7 Casuariiformes       4
    ##  8 Cathartiformes       7
    ##  9 Charadriiformes    379
    ## 10 Ciconiiformes       19
    ## # … with 31 more rows
…
